{
  "content": [
    {
      "content": null,
      "created": "2023-10-27T13:35:24.128880Z",
      "format": null,
      "last_modified": "2023-10-27T13:35:21.661999Z",
      "mimetype": "text/x-python",
      "name": "exo_descr-stats_2.py",
      "path": "custom/solutions/exo_descr-stats_2.py",
      "size": 55,
      "type": "file",
      "writable": true
    },
    {
      "content": null,
      "created": "2023-10-27T13:35:24.128880Z",
      "format": null,
      "last_modified": "2023-10-27T13:35:21.659999Z",
      "mimetype": "text/x-python",
      "name": "exo_descr-stats_11.py",
      "path": "custom/solutions/exo_descr-stats_11.py",
      "size": 99,
      "type": "file",
      "writable": true
    },
    {
      "content": null,
      "created": "2023-10-27T13:35:24.128880Z",
      "format": null,
      "last_modified": "2023-10-27T13:35:21.659999Z",
      "mimetype": "text/x-python",
      "name": "exo_descr-stats_13.py",
      "path": "custom/solutions/exo_descr-stats_13.py",
      "size": 94,
      "type": "file",
      "writable": true
    },
    {
      "content": null,
      "created": "2023-10-27T13:35:24.130880Z",
      "format": null,
      "last_modified": "2023-10-27T13:35:21.660999Z",
      "mimetype": "text/x-python",
      "name": "exo_descr-stats_7.py",
      "path": "custom/solutions/exo_descr-stats_7.py",
      "size": 43,
      "type": "file",
      "writable": true
    },
    {
      "content": null,
      "created": "2023-10-27T13:35:24.126880Z",
      "format": null,
      "last_modified": "2023-10-27T13:35:21.033029Z",
      "mimetype": "text/x-python",
      "name": "exo_corr_3.py",
      "path": "custom/solutions/exo_corr_3.py",
      "size": 102,
      "type": "file",
      "writable": true
    },
    {
      "content": null,
      "created": "2023-10-27T13:35:24.129880Z",
      "format": null,
      "last_modified": "2023-10-27T13:35:21.660999Z",
      "mimetype": "text/x-python",
      "name": "exo_descr-stats_6.py",
      "path": "custom/solutions/exo_descr-stats_6.py",
      "size": 35,
      "type": "file",
      "writable": true
    },
    {
      "content": null,
      "created": "2023-10-27T13:35:24.129880Z",
      "format": null,
      "last_modified": "2023-10-27T13:35:21.660999Z",
      "mimetype": "text/x-python",
      "name": "exo_descr-stats_5.py",
      "path": "custom/solutions/exo_descr-stats_5.py",
      "size": 121,
      "type": "file",
      "writable": true
    },
    {
      "content": null,
      "created": "2023-10-27T13:35:24.126880Z",
      "format": null,
      "last_modified": "2023-10-27T13:35:21.033029Z",
      "mimetype": "text/x-python",
      "name": "exo_corr_4.py",
      "path": "custom/solutions/exo_corr_4.py",
      "size": 98,
      "type": "file",
      "writable": true
    },
    {
      "content": null,
      "created": "2023-10-27T13:35:24.129880Z",
      "format": null,
      "last_modified": "2023-10-27T13:35:21.660999Z",
      "mimetype": "text/x-python",
      "name": "exo_descr-stats_3.py",
      "path": "custom/solutions/exo_descr-stats_3.py",
      "size": 91,
      "type": "file",
      "writable": true
    },
    {
      "content": null,
      "created": "2023-10-27T13:35:24.126880Z",
      "format": null,
      "last_modified": "2023-10-27T13:35:21.034029Z",
      "mimetype": "text/x-python",
      "name": "exo_corr_2.py",
      "path": "custom/solutions/exo_corr_2.py",
      "size": 98,
      "type": "file",
      "writable": true
    },
    {
      "content": null,
      "created": "2023-10-27T13:35:24.127880Z",
      "format": null,
      "last_modified": "2023-10-27T13:35:21.032029Z",
      "mimetype": "text/x-python",
      "name": "exo_corr_9.py",
      "path": "custom/solutions/exo_corr_9.py",
      "size": 169,
      "type": "file",
      "writable": true
    },
    {
      "content": null,
      "created": "2023-10-27T13:35:24.127880Z",
      "format": null,
      "last_modified": "2023-10-27T13:35:21.032029Z",
      "mimetype": "text/x-python",
      "name": "exo_corr_8.py",
      "path": "custom/solutions/exo_corr_8.py",
      "size": 153,
      "type": "file",
      "writable": true
    },
    {
      "content": null,
      "created": "2023-10-27T13:35:24.128880Z",
      "format": null,
      "last_modified": "2023-10-27T13:35:21.659999Z",
      "mimetype": "text/x-python",
      "name": "exo_descr-stats_10.py",
      "path": "custom/solutions/exo_descr-stats_10.py",
      "size": 58,
      "type": "file",
      "writable": true
    },
    {
      "content": null,
      "created": "2023-10-27T13:35:24.125880Z",
      "format": null,
      "last_modified": "2023-10-27T13:35:21.034029Z",
      "mimetype": "text/x-python",
      "name": "exo_corr_1.py",
      "path": "custom/solutions/exo_corr_1.py",
      "size": 16,
      "type": "file",
      "writable": true
    },
    {
      "content": null,
      "created": "2023-10-27T13:35:24.127880Z",
      "format": null,
      "last_modified": "2023-10-27T13:35:21.033029Z",
      "mimetype": "text/x-python",
      "name": "exo_corr_7_fr-FR.py",
      "path": "custom/solutions/exo_corr_7_fr-FR.py",
      "size": 295,
      "type": "file",
      "writable": true
    },
    {
      "content": null,
      "created": "2023-10-27T13:35:24.126880Z",
      "format": null,
      "last_modified": "2023-10-27T13:35:21.033029Z",
      "mimetype": "text/x-python",
      "name": "exo_corr_6_fr-FR.py",
      "path": "custom/solutions/exo_corr_6_fr-FR.py",
      "size": 287,
      "type": "file",
      "writable": true
    },
    {
      "content": null,
      "created": "2023-10-27T13:35:24.128880Z",
      "format": null,
      "last_modified": "2023-10-27T13:35:21.659999Z",
      "mimetype": "text/x-python",
      "name": "exo_descr-stats_12.py",
      "path": "custom/solutions/exo_descr-stats_12.py",
      "size": 249,
      "type": "file",
      "writable": true
    },
    {
      "content": null,
      "created": "2023-10-27T13:35:24.130880Z",
      "format": null,
      "last_modified": "2023-10-27T13:35:21.659999Z",
      "mimetype": "text/x-python",
      "name": "exo_descr-stats_8.py",
      "path": "custom/solutions/exo_descr-stats_8.py",
      "size": 42,
      "type": "file",
      "writable": true
    },
    {
      "content": null,
      "created": "2023-10-27T13:35:24.129880Z",
      "format": null,
      "last_modified": "2023-10-27T13:35:21.660999Z",
      "mimetype": "text/x-python",
      "name": "exo_descr-stats_4.py",
      "path": "custom/solutions/exo_descr-stats_4.py",
      "size": 168,
      "type": "file",
      "writable": true
    },
    {
      "content": null,
      "created": "2023-10-27T13:35:24.130880Z",
      "format": null,
      "last_modified": "2023-10-27T13:35:21.659999Z",
      "mimetype": "text/x-python",
      "name": "exo_descr-stats_9.py",
      "path": "custom/solutions/exo_descr-stats_9.py",
      "size": 58,
      "type": "file",
      "writable": true
    },
    {
      "content": null,
      "created": "2023-10-27T13:35:24.126880Z",
      "format": null,
      "last_modified": "2023-10-27T13:35:21.033029Z",
      "mimetype": "text/x-python",
      "name": "exo_corr_5.py",
      "path": "custom/solutions/exo_corr_5.py",
      "size": 342,
      "type": "file",
      "writable": true
    },
    {
      "content": null,
      "created": "2023-10-27T13:35:24.127880Z",
      "format": null,
      "last_modified": "2023-10-27T13:35:21.661999Z",
      "mimetype": "text/x-python",
      "name": "exo_descr-stats_1.py",
      "path": "custom/solutions/exo_descr-stats_1.py",
      "size": 68,
      "type": "file",
      "writable": true
    }
  ],
  "created": "2023-10-27T13:35:24.130880Z",
  "format": "json",
  "last_modified": "2023-10-27T13:35:24.130880Z",
  "mimetype": null,
  "name": "solutions",
  "path": "custom/solutions",
  "size": null,
  "type": "directory",
  "writable": true
}