Sexe,Moyenne_2nd,Moyenne_T,Spécialisation_T,Moyenne_Univ,Spécialisation_Univ,Expérience_pro,Note_examen_MBA,Spécialisation_MBA,Moyenne_MBA,Embauché,Salaire
M,67.0,91.0,Commerce,58.0,Sci&Tech,Non,55.0,Mkt&HR,58.8,True,270000.0
M,79.33,78.33,Science,77.48,Sci&Tech,Oui,86.5,Mkt&Fin,66.28,True,200000.0
M,65.0,68.0,Arts,64.0,Comm&Mgmt,Non,75.0,Mkt&Fin,57.8,True,250000.0
M,56.0,52.0,Science,52.0,Sci&Tech,Non,66.0,Mkt&HR,59.43,False,
M,85.8,73.6,Commerce,73.3,Comm&Mgmt,Non,96.8,Mkt&Fin,55.5,True,425000.0
M,55.0,49.8,Science,67.25,Sci&Tech,Oui,55.0,Mkt&Fin,51.58,False,
F,46.0,49.2,Commerce,79.0,Comm&Mgmt,Non,74.28,Mkt&Fin,53.29,False,
M,82.0,64.0,Science,66.0,Sci&Tech,Oui,67.0,Mkt&Fin,62.14,True,252000.0
M,73.0,79.0,Commerce,72.0,Comm&Mgmt,Non,91.34,Mkt&Fin,61.29,True,231000.0
M,58.0,70.0,Commerce,61.0,Comm&Mgmt,Non,54.0,Mkt&Fin,52.21,False,
M,58.0,61.0,Commerce,60.0,Comm&Mgmt,Oui,62.0,Mkt&HR,60.85,True,260000.0
M,69.6,68.4,Commerce,78.3,Comm&Mgmt,Oui,60.0,Mkt&Fin,63.7,True,250000.0
F,47.0,55.0,Science,65.0,Comm&Mgmt,Non,62.0,Mkt&HR,65.04,False,
F,77.0,87.0,Commerce,59.0,Comm&Mgmt,Non,68.0,Mkt&Fin,68.63,True,218000.0
M,62.0,47.0,Commerce,50.0,Comm&Mgmt,Non,76.0,Mkt&HR,54.96,False,
F,65.0,75.0,Commerce,69.0,Comm&Mgmt,Oui,72.0,Mkt&Fin,64.66,True,200000.0
M,63.0,66.2,Commerce,65.6,Comm&Mgmt,Oui,60.0,Mkt&Fin,62.54,True,300000.0
F,55.0,67.0,Commerce,64.0,Comm&Mgmt,Non,60.0,Mkt&Fin,67.28,False,
F,63.0,66.0,Commerce,64.0,Comm&Mgmt,Non,68.0,Mkt&HR,64.08,False,
M,60.0,67.0,Arts,70.0,Comm&Mgmt,Oui,50.48,Mkt&Fin,77.89,True,236000.0
M,62.0,65.0,Commerce,66.0,Comm&Mgmt,Non,50.0,Mkt&HR,56.7,True,265000.0
F,79.0,76.0,Commerce,85.0,Comm&Mgmt,Non,95.0,Mkt&Fin,69.06,True,393000.0
F,69.8,60.8,Science,72.23,Sci&Tech,Non,55.53,Mkt&HR,68.81,True,360000.0
F,77.4,60.0,Science,64.74,Sci&Tech,Oui,92.0,Mkt&Fin,63.62,True,300000.0
M,76.5,97.7,Science,78.86,Sci&Tech,Non,97.4,Mkt&Fin,74.01,True,360000.0
F,52.58,54.6,Commerce,50.2,Comm&Mgmt,Oui,76.0,Mkt&Fin,65.33,False,
M,71.0,79.0,Commerce,66.0,Comm&Mgmt,Oui,94.0,Mkt&Fin,57.55,True,240000.0
M,63.0,67.0,Commerce,66.0,Comm&Mgmt,Non,68.0,Mkt&HR,57.69,True,265000.0
M,76.76,76.5,Commerce,67.5,Comm&Mgmt,Oui,73.35,Mkt&Fin,64.15,True,350000.0
M,62.0,67.0,Commerce,58.0,Comm&Mgmt,Non,77.0,Mkt&Fin,51.29,False,
F,64.0,73.5,Commerce,73.0,Comm&Mgmt,Non,52.0,Mkt&HR,56.7,True,250000.0
F,67.0,53.0,Science,65.0,Sci&Tech,Non,64.0,Mkt&HR,58.32,False,
F,61.0,81.0,Commerce,66.4,Comm&Mgmt,Non,50.89,Mkt&HR,62.21,True,278000.0
F,87.0,65.0,Science,81.0,Comm&Mgmt,Oui,88.0,Mkt&Fin,72.78,True,260000.0
M,62.0,51.0,Science,52.0,Others,Non,68.44,Mkt&HR,62.77,False,
F,69.0,78.0,Commerce,72.0,Comm&Mgmt,Non,71.0,Mkt&HR,62.74,True,300000.0
M,51.0,44.0,Commerce,57.0,Comm&Mgmt,Non,64.0,Mkt&Fin,51.45,False,
F,79.0,76.0,Science,65.6,Sci&Tech,Non,58.0,Mkt&HR,55.47,True,320000.0
F,73.0,58.0,Science,66.0,Comm&Mgmt,Non,53.7,Mkt&HR,56.86,True,240000.0
M,81.0,68.0,Science,64.0,Sci&Tech,Non,93.0,Mkt&Fin,62.56,True,411000.0
F,78.0,77.0,Commerce,80.0,Comm&Mgmt,Non,60.0,Mkt&Fin,66.72,True,287000.0
F,74.0,63.16,Commerce,65.0,Comm&Mgmt,Oui,65.0,Mkt&HR,69.76,False,
M,49.0,39.0,Science,65.0,Others,Non,63.0,Mkt&Fin,51.21,False,
M,87.0,87.0,Commerce,68.0,Comm&Mgmt,Non,95.0,Mkt&HR,62.9,True,300000.0
F,77.0,73.0,Commerce,81.0,Comm&Mgmt,Oui,89.0,Mkt&Fin,69.7,True,200000.0
F,76.0,64.0,Science,72.0,Sci&Tech,Non,58.0,Mkt&HR,66.53,False,
F,70.89,71.98,Science,65.6,Comm&Mgmt,Non,68.0,Mkt&HR,71.63,False,
M,63.0,60.0,Commerce,57.0,Comm&Mgmt,Oui,78.0,Mkt&Fin,54.55,True,204000.0
M,63.0,62.0,Commerce,68.0,Comm&Mgmt,Non,64.0,Mkt&Fin,62.46,True,250000.0
F,50.0,37.0,Arts,52.0,Others,Non,65.0,Mkt&HR,56.11,False,
F,75.2,73.2,Science,68.4,Comm&Mgmt,Non,65.0,Mkt&HR,62.98,True,200000.0
M,54.4,61.12,Commerce,56.2,Comm&Mgmt,Non,67.0,Mkt&HR,62.65,False,
F,40.89,45.83,Commerce,53.0,Comm&Mgmt,Non,71.2,Mkt&HR,65.49,False,
M,80.0,70.0,Science,72.0,Sci&Tech,Non,87.0,Mkt&HR,71.04,True,450000.0
F,74.0,60.0,Science,69.0,Comm&Mgmt,Non,78.0,Mkt&HR,65.56,True,216000.0
M,60.4,66.6,Science,65.0,Comm&Mgmt,Non,71.0,Mkt&HR,52.71,True,220000.0
M,63.0,71.4,Commerce,61.4,Comm&Mgmt,Non,68.0,Mkt&Fin,66.88,True,240000.0
M,68.0,76.0,Commerce,74.0,Comm&Mgmt,Non,80.0,Mkt&Fin,63.59,True,360000.0
M,74.0,62.0,Science,68.0,Comm&Mgmt,Non,74.0,Mkt&Fin,57.99,True,268000.0
M,52.6,65.58,Science,72.11,Sci&Tech,Non,57.6,Mkt&Fin,56.66,True,265000.0
M,74.0,70.0,Science,72.0,Comm&Mgmt,Oui,60.0,Mkt&Fin,57.24,True,260000.0
M,84.2,73.4,Commerce,66.89,Comm&Mgmt,Non,61.6,Mkt&Fin,62.48,True,300000.0
F,86.5,64.2,Science,67.4,Sci&Tech,Non,59.0,Mkt&Fin,59.69,True,240000.0
M,61.0,70.0,Commerce,64.0,Comm&Mgmt,Non,68.5,Mkt&HR,59.5,False,
M,80.0,73.0,Commerce,75.0,Comm&Mgmt,Non,61.0,Mkt&Fin,58.78,True,240000.0
M,54.0,47.0,Science,57.0,Comm&Mgmt,Non,89.69,Mkt&HR,57.1,False,
M,83.0,74.0,Science,66.0,Comm&Mgmt,Non,68.92,Mkt&HR,58.46,True,275000.0
M,80.92,78.5,Commerce,67.0,Comm&Mgmt,Non,68.71,Mkt&Fin,60.99,True,275000.0
F,69.7,47.0,Commerce,72.7,Sci&Tech,Non,79.0,Mkt&HR,59.24,False,
M,73.0,73.0,Science,66.0,Sci&Tech,Oui,70.0,Mkt&Fin,68.07,True,275000.0
M,82.0,61.0,Science,62.0,Sci&Tech,Non,89.0,Mkt&Fin,65.45,True,360000.0
M,75.0,70.29,Commerce,71.0,Comm&Mgmt,Non,95.0,Mkt&Fin,66.94,True,240000.0
M,84.86,67.0,Science,78.0,Comm&Mgmt,Non,95.5,Mkt&Fin,68.53,True,240000.0
M,64.6,83.83,Commerce,71.72,Comm&Mgmt,Non,86.0,Mkt&Fin,59.75,True,218000.0
M,56.6,64.8,Commerce,70.2,Comm&Mgmt,Non,84.27,Mkt&Fin,67.2,True,336000.0
F,59.0,62.0,Commerce,77.5,Comm&Mgmt,Non,74.0,Mkt&HR,67.0,False,
F,66.5,70.4,Arts,71.93,Comm&Mgmt,Non,61.0,Mkt&Fin,64.27,True,230000.0
M,64.0,80.0,Science,65.0,Sci&Tech,Oui,69.0,Mkt&Fin,57.65,True,500000.0
M,84.0,90.9,Science,64.5,Sci&Tech,Non,86.04,Mkt&Fin,59.42,True,270000.0
F,69.0,62.0,Science,66.0,Sci&Tech,Non,75.0,Mkt&HR,67.99,False,
F,69.0,62.0,Commerce,69.0,Comm&Mgmt,Oui,67.0,Mkt&HR,62.35,True,240000.0
M,81.7,63.0,Science,67.0,Comm&Mgmt,Oui,86.0,Mkt&Fin,70.2,True,300000.0
M,63.0,67.0,Commerce,74.0,Comm&Mgmt,Non,82.0,Mkt&Fin,60.44,False,
M,84.0,79.0,Science,68.0,Sci&Tech,Oui,84.0,Mkt&Fin,66.69,True,300000.0
M,70.0,63.0,Science,70.0,Sci&Tech,Oui,55.0,Mkt&Fin,62.0,True,300000.0
F,83.84,89.83,Commerce,77.2,Comm&Mgmt,Oui,78.74,Mkt&Fin,76.18,True,400000.0
M,62.0,63.0,Commerce,64.0,Comm&Mgmt,Non,67.0,Mkt&Fin,57.03,True,220000.0
M,59.6,51.0,Science,60.0,Others,Non,75.0,Mkt&HR,59.08,False,
F,66.0,62.0,Commerce,73.0,Comm&Mgmt,Non,58.0,Mkt&HR,64.36,True,210000.0
F,84.0,75.0,Science,69.0,Sci&Tech,Oui,62.0,Mkt&HR,62.36,True,210000.0
F,85.0,90.0,Commerce,82.0,Comm&Mgmt,Non,92.0,Mkt&Fin,68.03,True,300000.0
M,52.0,57.0,Commerce,50.8,Comm&Mgmt,Non,67.0,Mkt&HR,62.79,False,
F,60.23,69.0,Science,66.0,Comm&Mgmt,Non,72.0,Mkt&Fin,59.47,True,230000.0
M,52.0,62.0,Commerce,54.0,Comm&Mgmt,Non,72.0,Mkt&HR,55.41,False,
M,58.0,62.0,Commerce,64.0,Comm&Mgmt,Non,53.88,Mkt&Fin,54.97,True,260000.0
M,73.0,78.0,Commerce,65.0,Comm&Mgmt,Oui,95.46,Mkt&Fin,62.16,True,420000.0
F,76.0,70.0,Science,76.0,Comm&Mgmt,Oui,66.0,Mkt&Fin,64.44,True,300000.0
F,70.5,62.5,Commerce,61.0,Comm&Mgmt,Non,93.91,Mkt&Fin,69.03,False,
F,69.0,73.0,Commerce,65.0,Comm&Mgmt,Non,70.0,Mkt&Fin,57.31,True,220000.0
M,54.0,82.0,Commerce,63.0,Sci&Tech,Non,50.0,Mkt&Fin,59.47,False,
F,45.0,57.0,Commerce,58.0,Comm&Mgmt,Oui,56.39,Mkt&HR,64.95,False,
M,63.0,72.0,Commerce,68.0,Comm&Mgmt,Non,78.0,Mkt&HR,60.44,True,380000.0
F,77.0,61.0,Commerce,68.0,Comm&Mgmt,Oui,57.5,Mkt&Fin,61.31,True,300000.0
M,73.0,78.0,Science,73.0,Sci&Tech,Oui,85.0,Mkt&HR,65.83,True,240000.0
M,69.0,63.0,Science,65.0,Comm&Mgmt,Oui,55.0,Mkt&HR,58.23,True,360000.0
M,59.0,64.0,Science,58.0,Sci&Tech,Non,85.0,Mkt&HR,55.3,False,
M,61.08,50.0,Science,54.0,Sci&Tech,Non,71.0,Mkt&Fin,65.69,False,
M,82.0,90.0,Commerce,83.0,Comm&Mgmt,Non,80.0,Mkt&HR,73.52,True,200000.0
M,61.0,82.0,Commerce,69.0,Comm&Mgmt,Non,84.0,Mkt&Fin,58.31,True,300000.0
M,52.0,63.0,Science,65.0,Sci&Tech,Oui,86.0,Mkt&HR,56.09,False,
F,69.5,70.0,Science,72.0,Sci&Tech,Non,57.2,Mkt&HR,54.8,True,250000.0
M,51.0,54.0,Science,61.0,Sci&Tech,Non,60.0,Mkt&HR,60.64,False,
M,58.0,61.0,Commerce,61.0,Comm&Mgmt,Non,58.0,Mkt&HR,53.94,True,250000.0
F,73.96,79.0,Commerce,67.0,Comm&Mgmt,Non,72.15,Mkt&Fin,63.08,True,280000.0
M,65.0,68.0,Science,69.0,Comm&Mgmt,Non,53.7,Mkt&HR,55.01,True,250000.0
F,73.0,63.0,Science,66.0,Comm&Mgmt,Non,89.0,Mkt&Fin,60.5,True,216000.0
M,68.2,72.8,Commerce,66.6,Comm&Mgmt,Oui,96.0,Mkt&Fin,70.85,True,300000.0
M,77.0,75.0,Science,73.0,Sci&Tech,Non,80.0,Mkt&Fin,67.05,True,240000.0
M,76.0,80.0,Science,78.0,Sci&Tech,Oui,97.0,Mkt&HR,70.48,True,276000.0
M,60.8,68.4,Commerce,64.6,Comm&Mgmt,Oui,82.66,Mkt&Fin,64.34,True,940000.0
M,58.0,40.0,Science,59.0,Comm&Mgmt,Non,73.0,Mkt&HR,58.81,False,
F,64.0,67.0,Science,69.6,Sci&Tech,Oui,55.67,Mkt&HR,71.49,True,250000.0
F,66.5,66.8,Arts,69.3,Comm&Mgmt,Oui,80.4,Mkt&Fin,71.0,True,236000.0
M,74.0,59.0,Commerce,73.0,Comm&Mgmt,Oui,60.0,Mkt&HR,56.7,True,240000.0
M,67.0,71.0,Science,64.33,Others,Oui,64.0,Mkt&HR,61.26,True,250000.0
F,84.0,73.0,Commerce,73.0,Comm&Mgmt,Non,75.0,Mkt&Fin,73.33,True,350000.0
F,79.0,61.0,Science,75.5,Sci&Tech,Oui,70.0,Mkt&Fin,68.2,True,210000.0
F,72.0,60.0,Science,69.0,Comm&Mgmt,Non,55.5,Mkt&HR,58.4,True,250000.0
M,80.4,73.4,Science,77.72,Sci&Tech,Oui,81.2,Mkt&HR,76.26,True,400000.0
M,76.7,89.7,Commerce,66.0,Comm&Mgmt,Oui,90.0,Mkt&Fin,68.55,True,250000.0
M,62.0,65.0,Commerce,60.0,Comm&Mgmt,Non,84.0,Mkt&Fin,64.15,False,
F,74.9,57.0,Science,62.0,Others,Oui,80.0,Mkt&Fin,60.78,True,360000.0
M,67.0,68.0,Commerce,64.0,Comm&Mgmt,Oui,74.4,Mkt&HR,53.49,True,300000.0
M,73.0,64.0,Commerce,77.0,Comm&Mgmt,Oui,65.0,Mkt&HR,60.98,True,250000.0
F,77.44,92.0,Commerce,72.0,Comm&Mgmt,Oui,94.0,Mkt&Fin,67.13,True,250000.0
F,72.0,56.0,Science,69.0,Comm&Mgmt,Non,55.6,Mkt&HR,65.63,True,200000.0
F,47.0,59.0,Arts,64.0,Comm&Mgmt,Non,78.0,Mkt&Fin,61.58,False,
M,67.0,63.0,Commerce,72.0,Comm&Mgmt,Non,56.0,Mkt&HR,60.41,True,225000.0
F,82.0,64.0,Science,73.0,Sci&Tech,Oui,96.0,Mkt&Fin,71.77,True,250000.0
M,77.0,70.0,Commerce,59.0,Comm&Mgmt,Oui,58.0,Mkt&Fin,54.43,True,220000.0
M,65.0,64.8,Commerce,69.5,Comm&Mgmt,Oui,56.0,Mkt&Fin,56.94,True,265000.0
M,66.0,64.0,Science,60.0,Comm&Mgmt,Non,60.0,Mkt&HR,61.9,False,
M,85.0,60.0,Science,73.43,Sci&Tech,Oui,60.0,Mkt&Fin,61.29,True,260000.0
M,77.67,64.89,Commerce,70.67,Comm&Mgmt,Non,89.0,Mkt&Fin,60.39,True,300000.0
M,52.0,50.0,Arts,61.0,Comm&Mgmt,Non,60.0,Mkt&Fin,58.52,False,
M,89.4,65.66,Science,71.25,Sci&Tech,Non,72.0,Mkt&HR,63.23,True,400000.0
M,62.0,63.0,Science,66.0,Comm&Mgmt,Non,85.0,Mkt&HR,55.14,True,233000.0
M,70.0,74.0,Commerce,65.0,Comm&Mgmt,Non,83.0,Mkt&Fin,62.28,True,300000.0
F,77.0,86.0,Arts,56.0,Others,Non,57.0,Mkt&Fin,64.08,True,240000.0
M,44.0,58.0,Arts,55.0,Comm&Mgmt,Oui,64.25,Mkt&HR,58.54,False,
M,71.0,58.66,Science,58.0,Sci&Tech,Oui,56.0,Mkt&Fin,61.3,True,690000.0
M,65.0,65.0,Commerce,75.0,Comm&Mgmt,Non,83.0,Mkt&Fin,58.87,True,270000.0
F,75.4,60.5,Science,84.0,Sci&Tech,Non,98.0,Mkt&Fin,65.25,True,240000.0
M,49.0,59.0,Science,65.0,Sci&Tech,Oui,86.0,Mkt&Fin,62.48,True,340000.0
M,53.0,63.0,Science,60.0,Comm&Mgmt,Oui,70.0,Mkt&Fin,53.2,True,250000.0
M,51.57,74.66,Commerce,59.9,Comm&Mgmt,Oui,56.15,Mkt&HR,65.99,False,
M,84.2,69.4,Science,65.0,Sci&Tech,Oui,80.0,Mkt&HR,52.72,True,255000.0
M,66.5,62.5,Commerce,60.9,Comm&Mgmt,Non,93.4,Mkt&Fin,55.03,True,300000.0
M,67.0,63.0,Science,64.0,Sci&Tech,Non,60.0,Mkt&Fin,61.87,False,
M,52.0,49.0,Commerce,58.0,Comm&Mgmt,Non,62.0,Mkt&HR,60.59,False,
M,87.0,74.0,Science,65.0,Sci&Tech,Oui,75.0,Mkt&HR,72.29,True,300000.0
M,55.6,51.0,Commerce,57.5,Comm&Mgmt,Non,57.63,Mkt&HR,62.72,False,
M,74.2,87.6,Commerce,77.25,Comm&Mgmt,Oui,75.2,Mkt&Fin,66.06,True,285000.0
M,63.0,67.0,Science,64.0,Sci&Tech,Non,75.0,Mkt&Fin,66.46,True,500000.0
F,67.16,72.5,Commerce,63.35,Comm&Mgmt,Non,53.04,Mkt&Fin,65.52,True,250000.0
F,63.3,78.33,Commerce,74.0,Comm&Mgmt,Non,80.0,Mkt&Fin,74.56,False,
M,62.0,62.0,Commerce,60.0,Comm&Mgmt,Oui,63.0,Mkt&HR,52.38,True,240000.0
M,67.9,62.0,Science,67.0,Sci&Tech,Oui,58.1,Mkt&Fin,75.71,False,
F,48.0,51.0,Commerce,58.0,Comm&Mgmt,Oui,60.0,Mkt&HR,58.79,False,
M,59.96,42.16,Science,61.26,Sci&Tech,Non,54.48,Mkt&HR,65.48,False,
F,63.4,67.2,Commerce,60.0,Comm&Mgmt,Non,58.06,Mkt&HR,69.28,False,
M,80.0,80.0,Commerce,72.0,Comm&Mgmt,Oui,63.79,Mkt&Fin,66.04,True,290000.0
M,73.0,58.0,Commerce,56.0,Comm&Mgmt,Non,84.0,Mkt&HR,52.64,True,300000.0
F,52.0,52.0,Science,55.0,Sci&Tech,Non,67.0,Mkt&HR,59.32,False,
M,73.24,50.83,Science,64.27,Sci&Tech,Oui,64.0,Mkt&Fin,66.23,True,500000.0
M,63.0,62.0,Science,65.0,Sci&Tech,Non,87.5,Mkt&HR,60.69,False,
F,59.0,60.0,Commerce,56.0,Comm&Mgmt,Non,55.0,Mkt&HR,57.9,True,220000.0
F,73.0,97.0,Commerce,79.0,Comm&Mgmt,Oui,89.0,Mkt&Fin,70.81,True,650000.0
M,68.0,56.0,Science,68.0,Sci&Tech,Non,73.0,Mkt&HR,68.07,True,350000.0
F,77.8,64.0,Science,64.2,Sci&Tech,Non,75.5,Mkt&HR,72.14,False,
M,65.0,71.5,Commerce,62.8,Comm&Mgmt,Oui,57.0,Mkt&Fin,56.6,True,265000.0
M,62.0,60.33,Science,64.21,Sci&Tech,Non,63.0,Mkt&HR,60.02,False,
M,52.0,65.0,Arts,57.0,Others,Oui,75.0,Mkt&Fin,59.81,False,
M,65.0,77.0,Commerce,69.0,Comm&Mgmt,Non,60.0,Mkt&HR,61.82,True,276000.0
F,56.28,62.83,Commerce,59.79,Comm&Mgmt,Non,60.0,Mkt&HR,57.29,False,
F,88.0,72.0,Science,78.0,Others,Non,82.0,Mkt&HR,71.43,True,252000.0
F,52.0,64.0,Commerce,61.0,Comm&Mgmt,Non,55.0,Mkt&Fin,62.93,False,
M,78.5,65.5,Science,67.0,Sci&Tech,Oui,95.0,Mkt&Fin,64.86,True,280000.0
M,61.8,47.0,Commerce,54.38,Comm&Mgmt,Non,57.0,Mkt&Fin,56.13,False,
F,54.0,77.6,Commerce,69.2,Comm&Mgmt,Non,95.65,Mkt&Fin,66.94,False,
F,64.0,70.2,Commerce,61.0,Comm&Mgmt,Non,50.0,Mkt&Fin,62.5,False,
M,67.0,61.0,Science,72.0,Comm&Mgmt,Non,72.0,Mkt&Fin,61.01,True,264000.0
M,65.2,61.4,Commerce,64.8,Comm&Mgmt,Oui,93.4,Mkt&Fin,57.34,True,270000.0
F,60.0,63.0,Arts,56.0,Others,Oui,80.0,Mkt&HR,56.63,True,300000.0
M,52.0,55.0,Commerce,56.3,Comm&Mgmt,Non,59.0,Mkt&Fin,64.74,False,
M,66.0,76.0,Commerce,72.0,Comm&Mgmt,Oui,84.0,Mkt&HR,58.95,True,275000.0
M,72.0,63.0,Science,77.5,Sci&Tech,Oui,78.0,Mkt&Fin,54.48,True,250000.0
F,83.96,53.0,Science,91.0,Sci&Tech,Non,59.32,Mkt&HR,69.71,True,260000.0
F,67.0,70.0,Commerce,65.0,Others,Non,88.0,Mkt&HR,71.96,False,
M,69.0,65.0,Commerce,57.0,Comm&Mgmt,Non,73.0,Mkt&HR,55.8,True,265000.0
M,69.0,60.0,Commerce,65.0,Comm&Mgmt,Non,87.55,Mkt&Fin,52.81,True,300000.0
M,54.2,63.0,Science,58.0,Comm&Mgmt,Non,79.0,Mkt&HR,58.44,False,
M,70.0,63.0,Science,66.0,Sci&Tech,Non,61.28,Mkt&HR,60.11,True,240000.0
M,55.68,61.33,Commerce,56.87,Comm&Mgmt,Non,66.0,Mkt&HR,58.3,True,260000.0
F,74.0,73.0,Commerce,73.0,Comm&Mgmt,Oui,80.0,Mkt&Fin,67.69,True,210000.0
M,61.0,62.0,Commerce,65.0,Comm&Mgmt,Non,62.0,Mkt&Fin,56.81,True,250000.0
M,41.0,42.0,Science,60.0,Comm&Mgmt,Non,97.0,Mkt&Fin,53.39,False,
M,83.33,78.0,Commerce,61.0,Comm&Mgmt,Oui,88.56,Mkt&Fin,71.55,True,300000.0
F,43.0,60.0,Science,65.0,Comm&Mgmt,Non,92.66,Mkt&HR,62.92,False,
M,62.0,72.0,Commerce,65.0,Comm&Mgmt,Non,67.0,Mkt&Fin,56.49,True,216000.0
M,80.6,82.0,Commerce,77.6,Comm&Mgmt,Non,91.0,Mkt&Fin,74.49,True,400000.0
M,58.0,60.0,Science,72.0,Sci&Tech,Non,74.0,Mkt&Fin,53.62,True,275000.0
M,67.0,67.0,Commerce,73.0,Comm&Mgmt,Oui,59.0,Mkt&Fin,69.72,True,295000.0
F,74.0,66.0,Commerce,58.0,Comm&Mgmt,Non,70.0,Mkt&HR,60.23,True,204000.0
M,62.0,58.0,Science,53.0,Comm&Mgmt,Non,89.0,Mkt&HR,60.22,False,
