{
  "content": [
    {
      "content": null,
      "created": "2023-10-27T13:35:24.060884Z",
      "format": null,
      "last_modified": "2023-10-27T13:35:20.287064Z",
      "mimetype": "application/json",
      "name": "information.json",
      "path": "custom/Data/gensim-data/information.json",
      "size": 21626,
      "type": "file",
      "writable": true
    },
    {
      "content": null,
      "created": "2023-10-27T13:35:23.913891Z",
      "format": null,
      "last_modified": "2023-10-27T13:35:23.913891Z",
      "mimetype": null,
      "name": "glove-wiki-gigaword-50",
      "path": "custom/Data/gensim-data/glove-wiki-gigaword-50",
      "size": null,
      "type": "directory",
      "writable": true
    }
  ],
  "created": "2023-10-27T13:35:24.060884Z",
  "format": "json",
  "last_modified": "2023-10-27T13:35:24.060884Z",
  "mimetype": null,
  "name": "gensim-data",
  "path": "custom/Data/gensim-data",
  "size": null,
  "type": "directory",
  "writable": true
}